%YAML 1.1
%TAG !u! tag:unity3d.com,2011:
--- !u!29 &1
SceneSettings:
  m_ObjectHideFlags: 0
  m_PVSData: 
  m_PVSObjectsArray: []
  m_PVSPortalsArray: []
  m_OcclusionBakeSettings:
    smallestOccluder: 5
    smallestHole: .25
    backfaceThreshold: 100
--- !u!104 &2
RenderSettings:
  m_Fog: 0
  m_FogColor: {r: .5, g: .5, b: .5, a: 1}
  m_FogMode: 3
  m_FogDensity: .00999999978
  m_LinearFogStart: 0
  m_LinearFogEnd: 300
  m_AmbientLight: {r: .200000003, g: .200000003, b: .200000003, a: 1}
  m_SkyboxMaterial: {fileID: 0}
  m_HaloStrength: .5
  m_FlareStrength: 1
  m_FlareFadeSpeed: 3
  m_HaloTexture: {fileID: 0}
  m_SpotCookie: {fileID: 0}
  m_ObjectHideFlags: 0
--- !u!127 &3
LevelGameManager:
  m_ObjectHideFlags: 0
--- !u!157 &4
LightmapSettings:
  m_ObjectHideFlags: 0
  m_LightProbes: {fileID: 0}
  m_Lightmaps: []
  m_LightmapsMode: 1
  m_BakedColorSpace: 0
  m_UseDualLightmapsInForward: 0
  m_LightmapEditorSettings:
    m_Resolution: 50
    m_LastUsedResolution: 0
    m_TextureWidth: 1024
    m_TextureHeight: 1024
    m_BounceBoost: 1
    m_BounceIntensity: 1
    m_SkyLightColor: {r: .860000014, g: .930000007, b: 1, a: 1}
    m_SkyLightIntensity: 0
    m_Quality: 0
    m_Bounces: 1
    m_FinalGatherRays: 1000
    m_FinalGatherContrastThreshold: .0500000007
    m_FinalGatherGradientThreshold: 0
    m_FinalGatherInterpolationPoints: 15
    m_AOAmount: 0
    m_AOMaxDistance: .100000001
    m_AOContrast: 1
    m_LODSurfaceMappingDistance: 1
    m_Padding: 0
    m_TextureCompression: 0
    m_LockAtlas: 0
--- !u!196 &5
NavMeshSettings:
  m_ObjectHideFlags: 0
  m_BuildSettings:
    agentRadius: .5
    agentHeight: 2
    agentSlope: 45
    agentClimb: .400000006
    ledgeDropHeight: 0
    maxJumpAcrossDistance: 0
    accuratePlacement: 0
    minRegionArea: 2
    widthInaccuracy: 16.666666
    heightInaccuracy: 10
  m_NavMesh: {fileID: 0}
--- !u!1001 &78384687
Prefab:
  m_ObjectHideFlags: 0
  serializedVersion: 2
  m_Modification:
    m_TransformParent: {fileID: 0}
    m_Modifications:
    - target: {fileID: 400000, guid: eeb0adfe620cb2c439136c1319ff1c5f, type: 2}
      propertyPath: m_LocalPosition.x
      value: -1.29606843
      objectReference: {fileID: 0}
    - target: {fileID: 400000, guid: eeb0adfe620cb2c439136c1319ff1c5f, type: 2}
      propertyPath: m_LocalPosition.y
      value: 1.09072888
      objectReference: {fileID: 0}
    - target: {fileID: 400000, guid: eeb0adfe620cb2c439136c1319ff1c5f, type: 2}
      propertyPath: m_LocalPosition.z
      value: -5
      objectReference: {fileID: 0}
    - target: {fileID: 400000, guid: eeb0adfe620cb2c439136c1319ff1c5f, type: 2}
      propertyPath: m_LocalRotation.x
      value: 0
      objectReference: {fileID: 0}
    - target: {fileID: 400000, guid: eeb0adfe620cb2c439136c1319ff1c5f, type: 2}
      propertyPath: m_LocalRotation.y
      value: 0
      objectReference: {fileID: 0}
    - target: {fileID: 400000, guid: eeb0adfe620cb2c439136c1319ff1c5f, type: 2}
      propertyPath: m_LocalRotation.z
      value: 0
      objectReference: {fileID: 0}
    - target: {fileID: 400000, guid: eeb0adfe620cb2c439136c1319ff1c5f, type: 2}
      propertyPath: m_LocalRotation.w
      value: 1
      objectReference: {fileID: 0}
    - target: {fileID: 400000, guid: eeb0adfe620cb2c439136c1319ff1c5f, type: 2}
      propertyPath: m_RootOrder
      value: 1
      objectReference: {fileID: 0}
    - target: {fileID: 11400000, guid: eeb0adfe620cb2c439136c1319ff1c5f, type: 2}
      propertyPath: state
      value: 0
      objectReference: {fileID: 0}
    m_RemovedComponents: []
  m_ParentPrefab: {fileID: 100100000, guid: eeb0adfe620cb2c439136c1319ff1c5f, type: 2}
  m_RootGameObject: {fileID: 216140808}
  m_IsPrefabParent: 0
  m_IsExploded: 1
--- !u!1 &216140808
GameObject:
  m_ObjectHideFlags: 0
  m_PrefabParentObject: {fileID: 100000, guid: eeb0adfe620cb2c439136c1319ff1c5f, type: 2}
  m_PrefabInternal: {fileID: 78384687}
  serializedVersion: 4
  m_Component:
  - 4: {fileID: 216140811}
  - 114: {fileID: 216140809}
  m_Layer: 0
  m_Name: FlowController
  m_TagString: Flow
  m_Icon: {fileID: 0}
  m_NavMeshLayer: 0
  m_StaticEditorFlags: 0
  m_IsActive: 1
--- !u!114 &216140809
MonoBehaviour:
  m_ObjectHideFlags: 0
  m_PrefabParentObject: {fileID: 11400000, guid: eeb0adfe620cb2c439136c1319ff1c5f,
    type: 2}
  m_PrefabInternal: {fileID: 78384687}
  m_GameObject: {fileID: 216140808}
  m_Enabled: 1
  m_EditorHideFlags: 0
  m_Script: {fileID: 11500000, guid: 3637968ec66a1334b9d645d3c99c79db, type: 3}
  m_Name: 
  m_EditorClassIdentifier: 
  state: 0
  time: 1
--- !u!4 &216140811
Transform:
  m_ObjectHideFlags: 0
  m_PrefabParentObject: {fileID: 400000, guid: eeb0adfe620cb2c439136c1319ff1c5f, type: 2}
  m_PrefabInternal: {fileID: 78384687}
  m_GameObject: {fileID: 216140808}
  m_LocalRotation: {x: 0, y: 0, z: 0, w: 1}
  m_LocalPosition: {x: -1.29606843, y: 1.09072888, z: -5}
  m_LocalScale: {x: 1, y: 1, z: 1}
  m_Children: []
  m_Father: {fileID: 0}
  m_RootOrder: 1
--- !u!1 &1191276490
GameObject:
  m_ObjectHideFlags: 0
  m_PrefabParentObject: {fileID: 100000, guid: 4e8eadcb69b4ff44ebafcb16eb655731, type: 2}
  m_PrefabInternal: {fileID: 1431786574}
  serializedVersion: 4
  m_Component:
  - 4: {fileID: 1191276495}
  - 82: {fileID: 1191276494}
  - 114: {fileID: 1191276493}
  - 114: {fileID: 1191276492}
  - 114: {fileID: 1191276491}
  m_Layer: 0
  m_Name: Music
  m_TagString: Music
  m_Icon: {fileID: 0}
  m_NavMeshLayer: 0
  m_StaticEditorFlags: 0
  m_IsActive: 1
--- !u!114 &1191276491
MonoBehaviour:
  m_ObjectHideFlags: 0
  m_PrefabParentObject: {fileID: 11400002, guid: 4e8eadcb69b4ff44ebafcb16eb655731,
    type: 2}
  m_PrefabInternal: {fileID: 1431786574}
  m_GameObject: {fileID: 1191276490}
  m_Enabled: 1
  m_EditorHideFlags: 0
  m_Script: {fileID: 11500000, guid: 67420014e9878c14faa9229fc8ee34bb, type: 3}
  m_Name: 
  m_EditorClassIdentifier: 
  audioSource: {fileID: 100000, guid: cbc83a83f03be0346b45927967459805, type: 2}
  hit: {fileID: 8300000, guid: cc9587963d50a824da2450c9635b3e8b, type: 3}
  jump: {fileID: 8300000, guid: 0e54818ad2c6d334eb6d8d6067e42fb8, type: 3}
  punch: {fileID: 8300000, guid: fc50f07542d630f43b0db57f5a903cf5, type: 3}
  victory: {fileID: 8300000, guid: 63b98413cdfb6334091ee8da00848e0b, type: 3}
  start: {fileID: 8300000, guid: 1a4519e7f6316904f8309743ba940f18, type: 3}
  change: {fileID: 8300000, guid: 9751290f4d9ca4740925f608601ef15f, type: 3}
--- !u!114 &1191276492
MonoBehaviour:
  m_ObjectHideFlags: 0
  m_PrefabParentObject: {fileID: 11400004, guid: 4e8eadcb69b4ff44ebafcb16eb655731,
    type: 2}
  m_PrefabInternal: {fileID: 1431786574}
  m_GameObject: {fileID: 1191276490}
  m_Enabled: 1
  m_EditorHideFlags: 0
  m_Script: {fileID: 11500000, guid: 5a89dce07aeb923419a1d2d70f8e7a3a, type: 3}
  m_Name: 
  m_EditorClassIdentifier: 
  enforceSingle: 1
--- !u!114 &1191276493
MonoBehaviour:
  m_ObjectHideFlags: 0
  m_PrefabParentObject: {fileID: 11400000, guid: 4e8eadcb69b4ff44ebafcb16eb655731,
    type: 2}
  m_PrefabInternal: {fileID: 1431786574}
  m_GameObject: {fileID: 1191276490}
  m_Enabled: 1
  m_EditorHideFlags: 0
  m_Script: {fileID: 11500000, guid: 9f174be387c52c447978bb8008d50c72, type: 3}
  m_Name: 
  m_EditorClassIdentifier: 
  songs:
  - {fileID: 8300000, guid: 58684aa7a4ca3864d87b5d14cd06bec6, type: 3}
  - {fileID: 8300000, guid: 202c0f5ca2d1be145aa0f4b07483e57c, type: 3}
  - {fileID: 8300000, guid: fa687a8b1c1b40e4bba361bded4b02f8, type: 3}
  currentSongIndex: 0
  playing: 0
--- !u!82 &1191276494
AudioSource:
  m_ObjectHideFlags: 0
  m_PrefabParentObject: {fileID: 8200000, guid: 4e8eadcb69b4ff44ebafcb16eb655731,
    type: 2}
  m_PrefabInternal: {fileID: 1431786574}
  m_GameObject: {fileID: 1191276490}
  m_Enabled: 1
  serializedVersion: 3
  m_audioClip: {fileID: 0}
  m_PlayOnAwake: 1
  m_Volume: 1
  m_Pitch: 1
  Loop: 0
  Mute: 0
  Priority: 128
  DopplerLevel: 0
  MinDistance: 1
  MaxDistance: 500
  Pan2D: 0
  rolloffMode: 0
  BypassEffects: 0
  BypassListenerEffects: 0
  BypassReverbZones: 0
  rolloffCustomCurve:
    serializedVersion: 2
    m_Curve:
    - time: 0
      value: 1
      inSlope: 0
      outSlope: 0
      tangentMode: 0
    - time: 1
      value: 0
      inSlope: 0
      outSlope: 0
      tangentMode: 0
    m_PreInfinity: 2
    m_PostInfinity: 2
  panLevelCustomCurve:
    serializedVersion: 2
    m_Curve:
    - time: 0
      value: 1
      inSlope: 0
      outSlope: 0
      tangentMode: 0
    m_PreInfinity: 2
    m_PostInfinity: 2
  spreadCustomCurve:
    serializedVersion: 2
    m_Curve:
    - time: 0
      value: 0
      inSlope: 0
      outSlope: 0
      tangentMode: 0
    m_PreInfinity: 2
    m_PostInfinity: 2
--- !u!4 &1191276495
Transform:
  m_ObjectHideFlags: 0
  m_PrefabParentObject: {fileID: 400000, guid: 4e8eadcb69b4ff44ebafcb16eb655731, type: 2}
  m_PrefabInternal: {fileID: 1431786574}
  m_GameObject: {fileID: 1191276490}
  m_LocalRotation: {x: 0, y: 0, z: 0, w: 1}
  m_LocalPosition: {x: 0, y: 0, z: 0}
  m_LocalScale: {x: 1, y: 1, z: 1}
  m_Children: []
  m_Father: {fileID: 0}
  m_RootOrder: 2
--- !u!1 &1242572790
GameObject:
  m_ObjectHideFlags: 0
  m_PrefabParentObject: {fileID: 0}
  m_PrefabInternal: {fileID: 0}
  serializedVersion: 4
  m_Component:
  - 4: {fileID: 1242572792}
  - 212: {fileID: 1242572791}
  m_Layer: 0
  m_Name: Title
  m_TagString: Untagged
  m_Icon: {fileID: 0}
  m_NavMeshLayer: 0
  m_StaticEditorFlags: 0
  m_IsActive: 1
--- !u!212 &1242572791
SpriteRenderer:
  m_ObjectHideFlags: 0
  m_PrefabParentObject: {fileID: 0}
  m_PrefabInternal: {fileID: 0}
  m_GameObject: {fileID: 1242572790}
  m_Enabled: 1
  m_CastShadows: 0
  m_ReceiveShadows: 0
  m_LightmapIndex: 255
  m_LightmapTilingOffset: {x: 1, y: 1, z: 0, w: 0}
  m_Materials:
  - {fileID: 10754, guid: 0000000000000000e000000000000000, type: 0}
  m_SubsetIndices: 
  m_StaticBatchRoot: {fileID: 0}
  m_UseLightProbes: 0
  m_LightProbeAnchor: {fileID: 0}
  m_ScaleInLightmap: 1
  m_SortingLayerID: 0
  m_SortingOrder: 0
  m_Sprite: {fileID: 21300000, guid: d807d3bdb86190947bac9aca68f9f667, type: 3}
  m_Color: {r: 1, g: 1, b: 1, a: 1}
--- !u!4 &1242572792
Transform:
  m_ObjectHideFlags: 0
  m_PrefabParentObject: {fileID: 0}
  m_PrefabInternal: {fileID: 0}
  m_GameObject: {fileID: 1242572790}
  m_LocalRotation: {x: 0, y: 0, z: 0, w: 1}
  m_LocalPosition: {x: 0, y: 0, z: 0}
  m_LocalScale: {x: 4.25, y: 4.25, z: 1}
  m_Children: []
  m_Father: {fileID: 0}
  m_RootOrder: 3
--- !u!1001 &1431786574
Prefab:
  m_ObjectHideFlags: 0
  serializedVersion: 2
  m_Modification:
    m_TransformParent: {fileID: 0}
    m_Modifications:
    - target: {fileID: 400000, guid: 4e8eadcb69b4ff44ebafcb16eb655731, type: 2}
      propertyPath: m_LocalPosition.x
      value: 0
      objectReference: {fileID: 0}
    - target: {fileID: 400000, guid: 4e8eadcb69b4ff44ebafcb16eb655731, type: 2}
      propertyPath: m_LocalPosition.y
      value: 0
      objectReference: {fileID: 0}
    - target: {fileID: 400000, guid: 4e8eadcb69b4ff44ebafcb16eb655731, type: 2}
      propertyPath: m_LocalPosition.z
      value: 0
      objectReference: {fileID: 0}
    - target: {fileID: 400000, guid: 4e8eadcb69b4ff44ebafcb16eb655731, type: 2}
      propertyPath: m_LocalRotation.x
      value: 0
      objectReference: {fileID: 0}
    - target: {fileID: 400000, guid: 4e8eadcb69b4ff44ebafcb16eb655731, type: 2}
      propertyPath: m_LocalRotation.y
      value: 0
      objectReference: {fileID: 0}
    - target: {fileID: 400000, guid: 4e8eadcb69b4ff44ebafcb16eb655731, type: 2}
      propertyPath: m_LocalRotation.z
      value: 0
      objectReference: {fileID: 0}
    - target: {fileID: 400000, guid: 4e8eadcb69b4ff44ebafcb16eb655731, type: 2}
      propertyPath: m_LocalRotation.w
      value: 1
      objectReference: {fileID: 0}
    - target: {fileID: 400000, guid: 4e8eadcb69b4ff44ebafcb16eb655731, type: 2}
      propertyPath: m_RootOrder
      value: 2
      objectReference: {fileID: 0}
    m_RemovedComponents: []
  m_ParentPrefab: {fileID: 100100000, guid: 4e8eadcb69b4ff44ebafcb16eb655731, type: 2}
  m_RootGameObject: {fileID: 1191276490}
  m_IsPrefabParent: 0
  m_IsExploded: 1
--- !u!1 &1922859698
GameObject:
  m_ObjectHideFlags: 0
  m_PrefabParentObject: {fileID: 0}
  m_PrefabInternal: {fileID: 0}
  serializedVersion: 4
  m_Component:
  - 4: {fileID: 1922859703}
  - 20: {fileID: 1922859702}
  - 92: {fileID: 1922859701}
  - 124: {fileID: 1922859700}
  - 81: {fileID: 1922859699}
  m_Layer: 0
  m_Name: Main Camera
  m_TagString: MainCamera
  m_Icon: {fileID: 0}
  m_NavMeshLayer: 0
  m_StaticEditorFlags: 0
  m_IsActive: 1
--- !u!81 &1922859699
AudioListener:
  m_ObjectHideFlags: 0
  m_PrefabParentObject: {fileID: 0}
  m_PrefabInternal: {fileID: 0}
  m_GameObject: {fileID: 1922859698}
  m_Enabled: 1
--- !u!124 &1922859700
Behaviour:
  m_ObjectHideFlags: 0
  m_PrefabParentObject: {fileID: 0}
  m_PrefabInternal: {fileID: 0}
  m_GameObject: {fileID: 1922859698}
  m_Enabled: 1
--- !u!92 &1922859701
Behaviour:
  m_ObjectHideFlags: 0
  m_PrefabParentObject: {fileID: 0}
  m_PrefabInternal: {fileID: 0}
  m_GameObject: {fileID: 1922859698}
  m_Enabled: 1
--- !u!20 &1922859702
Camera:
  m_ObjectHideFlags: 0
  m_PrefabParentObject: {fileID: 0}
  m_PrefabInternal: {fileID: 0}
  m_GameObject: {fileID: 1922859698}
  m_Enabled: 1
  serializedVersion: 2
  m_ClearFlags: 1
  m_BackGroundColor: {r: 0, g: 0, b: 0, a: .0196078438}
  m_NormalizedViewPortRect:
    serializedVersion: 2
    x: 0
    y: 0
    width: 1
    height: 1
  near clip plane: .300000012
  far clip plane: 1000
  field of view: 60
  orthographic: 1
  orthographic size: 5
  m_Depth: -1
  m_CullingMask:
    serializedVersion: 2
    m_Bits: 4294967295
  m_RenderingPath: -1
  m_TargetTexture: {fileID: 0}
  m_TargetDisplay: 0
  m_HDR: 0
  m_OcclusionCulling: 1
  m_StereoConvergence: 10
  m_StereoSeparation: .0219999999
--- !u!4 &1922859703
Transform:
  m_ObjectHideFlags: 0
  m_PrefabParentObject: {fileID: 0}
  m_PrefabInternal: {fileID: 0}
  m_GameObject: {fileID: 1922859698}
  m_LocalRotation: {x: 0, y: 0, z: 0, w: 1}
  m_LocalPosition: {x: 0, y: 0, z: -10}
  m_LocalScale: {x: 1, y: 1, z: 1}
  m_Children: []
  m_Father: {fileID: 0}
  m_RootOrder: 0
